{
    "NAME": "ha",
    "VERSION": 1,
    "QUERIES": [
        {
            "UNIQUEID": "metadata",
            "TYPE": 1,
            "BELONGS_TO_DB_VERSION": 1,
            "QSTRING": "create table if not exists metadata (version integer);"
        },
        {
            "UNIQUEID": "update_metadata_version",
            "TYPE": 3,
            "BELONGS_TO_DB_VERSION": 1,
            "QSTRING": "update metadata set version=%@ where version=%@;"
        },
        {
            "UNIQUEID": "get_version",
            "TYPE": 5,
            "BELONGS_TO_DB_VERSION": 1,
            "QSTRING": "Select version from metadata;"
        },
        {
            "UNIQUEID": "devices",
            "TYPE": 1,
            "VERSION": 1,
            "QSTRING": "CREATE TABLE devices(did VARCHAR(100), osv VARCHAR(10), rdate VARCHAR(40), vc INTEGER, vn VARCHAR(40), tkn TEXT, uid VARCHAR(20), uname VARCHAR(200), utype VARCHAR(20));"
        },
        {
            "UNIQUEID": "events",
            "TYPE": 1,
            "VERSION": 1,
            "QSTRING": "CREATE TABLE events(id INTEGER PRIMARY KEY AUTOINCREMENT, data TEXT, created_on INTEGER);"
        }
    ]
}
